…
``` r
lq_nc <- laquinta %>%
  filter(state == "NC")
nrow(lq_nc)
```

    ## [1] 12

``` r
dn_lq_nc <- full_join(dn_nc, lq_nc, by = "state")
dn_lq_nc
```

    ## # A tibble: 336 × 11
    ##    address.x  city.x  state zip.x longitude.x latitude.x address.y  city.y zip.y
    ##    <chr>      <chr>   <chr> <chr>       <dbl>      <dbl> <chr>      <chr>  <chr>
    ##  1 1 Regent … Ashevi… NC    28806       -82.6       35.6 165 Hwy 1… "\nBo… 28607
    ##  2 1 Regent … Ashevi… NC    28806       -82.6       35.6 3127 Sloa… "\nCh… 28208
    ##  3 1 Regent … Ashevi… NC    28806       -82.6       35.6 4900 Sout… "\nCh… 28217
    ##  4 1 Regent … Ashevi… NC    28806       -82.6       35.6 4414 Durh… "\nDu… 27707
    ##  5 1 Regent … Ashevi… NC    28806       -82.6       35.6 1910 West… "\nDu… 27713
    ##  6 1 Regent … Ashevi… NC    28806       -82.6       35.6 1201 Lana… "\nGr… 27407
    ##  7 1 Regent … Ashevi… NC    28806       -82.6       35.6 1607 Fair… "\nCo… 28613
    ##  8 1 Regent … Ashevi… NC    28806       -82.6       35.6 191 Cresc… "\nCa… 27518
    ##  9 1 Regent … Ashevi… NC    28806       -82.6       35.6 2211 Summ… "\nRa… 27612
    ## 10 1 Regent … Ashevi… NC    28806       -82.6       35.6 1001 Aeri… "\nMo… 27560
    ## # … with 326 more rows, and 2 more variables: longitude.y <dbl>,
    ## #   latitude.y <dbl>

``` r
dn_lq_nc <- mutate(dn_lq_nc, distance = haversine(longitude.x, latitude.x, longitude.y, latitude.y, round = 3))

dn_lq_nc_mindist <- dn_lq_nc %>%
  group_by(address.x) %>%
  summarize(closest = min(distance))

dn_lq_nc_mindist
```

    ## # A tibble: 28 × 2
    ##    address.x                 closest
    ##    <chr>                       <dbl>
    ##  1 1 Regent Park Boulevard     108. 
    ##  2 101 Wintergreen Dr          120. 
    ##  3 103 Sedgehill Dr             26.7
    ##  4 1043 Jimmie Kerr Road        36.1
    ##  5 1201 S College Road         188. 
    ##  6 1209 Burkemount Avenue       39.1
    ##  7 1493 Us Hwy 74-A Bypass      70.1
    ##  8 1524 Dabney Dr               59.5
    ##  9 1550 Four Seasons           115. 
    ## 10 1800 Princeton-Kenly Road    55.9
    ## # … with 18 more rows
…
``` r
lq_tx <- laquinta %>%
  filter(state == "TX")
nrow(lq_tx)
```

    ## [1] 237

``` r
dn_lq_tx <- full_join(dn_tx, lq_tx, by = "state")
dn_lq_tx
```

    ## # A tibble: 47,400 × 11
    ##    address.x  city.x  state zip.x longitude.x latitude.x address.y  city.y zip.y
    ##    <chr>      <chr>   <chr> <chr>       <dbl>      <dbl> <chr>      <chr>  <chr>
    ##  1 120 East … Abilene TX    79601       -99.6       32.4 3018 CatC… "\nAb… 79606
    ##  2 120 East … Abilene TX    79601       -99.6       32.4 3501 West… "\nAb… 79601
    ##  3 120 East … Abilene TX    79601       -99.6       32.4 14925 Lan… "\nAd… 75254
    ##  4 120 East … Abilene TX    79601       -99.6       32.4 909 East … "\nAl… 78516
    ##  5 120 East … Abilene TX    79601       -99.6       32.4 2400 East… "\nAl… 78332
    ##  6 120 East … Abilene TX    79601       -99.6       32.4 1220 Nort… "\nAl… 75013
    ##  7 120 East … Abilene TX    79601       -99.6       32.4 1165 Hwy … "\nAl… 76009
    ##  8 120 East … Abilene TX    79601       -99.6       32.4 880 South… "\nAl… 77511
    ##  9 120 East … Abilene TX    79601       -99.6       32.4 1708 Inte… "\nAm… 79103
    ## 10 120 East … Abilene TX    79601       -99.6       32.4 9305 East… "\nAm… 79118
    ## # … with 47,390 more rows, and 2 more variables: longitude.y <dbl>,
    ## #   latitude.y <dbl>

``` r
dn_lq_tx <- mutate(dn_lq_tx, distance = haversine(longitude.x, latitude.x, longitude.y, latitude.y, round = 3))

dn_lq_tx_mindist <- dn_lq_tx %>%
  group_by(address.x) %>%
  summarize(closest = min(distance))

dn_lq_tx_mindist
```

    ## # A tibble: 200 × 2
    ##    address.x             closest
    ##    <chr>                   <dbl>
    ##  1 100 Cottonwood         33.6  
    ##  2 100 E Pinehurst         1.39 
    ##  3 100 Us Highway 79 S    33.9  
    ##  4 101 N Fm 707           10.3  
    ##  5 1011 Beltway Parkway   14.0  
    ##  6 1015 Spur 350 West      1.74 
    ##  7 1015 West Main St       1.10 
    ##  8 10367 Highway 59       37.6  
    ##  9 10433 N Central Expwy   0.618
    ## 10 105 W 42nd St           6.88 
    ## # … with 190 more rows
…
``` r
lq_sc <- laquinta %>%
  filter(state == "SC")
nrow(lq_sc)
```

    ## [1] 8

``` r
dn_lq_sc <- full_join(dn_sc, lq_sc, by = "state")
dn_lq_sc
```

    ## # A tibble: 136 × 11
    ##    address.x  city.x  state zip.x longitude.x latitude.x address.y city.y  zip.y
    ##    <chr>      <chr>   <chr> <chr>       <dbl>      <dbl> <chr>     <chr>   <chr>
    ##  1 3401 Clem… Anders… SC    29621       -82.7       34.5 11 Ashle… "\nCha… 29407
    ##  2 3401 Clem… Anders… SC    29621       -82.7       34.5 1538 Hor… "\nCol… 29223
    ##  3 3401 Clem… Anders… SC    29621       -82.7       34.5 7333 Gar… "\nCol… 29209
    ##  4 3401 Clem… Anders… SC    29621       -82.7       34.5 2123 Wes… "\nFlo… 29501
    ##  5 3401 Clem… Anders… SC    29621       -82.7       34.5 65 West … "\nGre… 29615
    ##  6 3401 Clem… Anders… SC    29621       -82.7       34.5 4709 Nor… "\nMyr… 29577
    ##  7 3401 Clem… Anders… SC    29621       -82.7       34.5 1561 21s… "\nMyr… 29577
    ##  8 3401 Clem… Anders… SC    29621       -82.7       34.5 1601B Hw… "\nNor… 29582
    ##  9 1011 N Mo… Blacks… SC    29702       -81.5       35.1 11 Ashle… "\nCha… 29407
    ## 10 1011 N Mo… Blacks… SC    29702       -81.5       35.1 1538 Hor… "\nCol… 29223
    ## # … with 126 more rows, and 2 more variables: longitude.y <dbl>,
    ## #   latitude.y <dbl>
…
